Aprendizaje de máquina
…
Podemos incluir de manera simple esta variable creando una variable dummy o
indicadora,
que toma el 1 cuando la casa tiene AC y 0 si no:

casas_e <- casas_e %>% mutate(AC_present = as.numeric(CentralAir == "Y"))
casas_e %>% select(Id, CentralAir, AC_present)

## # A tibble: 1,000 x 3
##       Id CentralAir AC_present
##    <int> <chr>           <dbl>
##  1  1070 Y                   1
##  2   730 Y                   1
##  3  1326 N                   0
##  4  1193 Y                   1
##  5  1079 Y                   1
##  6    85 Y                   1
##  7  1143 Y                   1
##  8   910 Y                   1
##  9  1063 N                   0
## 10   371 Y                   1
## # ... with 990 more rows
…
Ejemplo

En nuestro ejemplo de precios de casas ya habíamos intentado utilizar una interacción,
considerando el cociente de dos variables. Aquí veremos una que es importante:
la relación entre precio y superficie debe tener interacción con el vecindario,
pues distintos vecindarios tienen distintos precios por metro cuadrado:

agrupamiento <- casas_e %>% group_by(Neighborhood) %>%
    summarise(media_ft2 = mean(SalePrice / GrLivArea), n = n()) %>%
    arrange(desc(media_ft2)) %>%
    mutate(Neighborhood_grp = ifelse(n < 60, 'Other', Neighborhood))
agrupamiento

## # A tibble: 25 x 4
##    Neighborhood media_ft2     n Neighborhood_grp
##    <chr>            <dbl> <int> <chr>           
##  1 StoneBr           170.    16 Other           
##  2 NridgHt           167.    50 Other           
##  3 Veenker           155.     8 Other           
##  4 Timber            141.    27 Other           
##  5 Somerst           141.    61 Somerst         
##  6 CollgCr           137.    99 CollgCr         
##  7 Blmngtn           135.    13 Other           
##  8 NoRidge           132.    32 Other           
##  9 ClearCr           126.    20 Other           
## 10 Mitchel           126.    34 Other           
## # ... with 15 more rows
…
