Aprendizaje de máquina
…
## # A tibble: 4 x 4
##   n_modelo shrinkage modelo    eval                
##      <int>     <dbl> <list>    <list>              
## 1        1      0.02 <S3: gbm> <tibble [1,000 × 3]>
## 2        2      0.05 <S3: gbm> <tibble [1,000 × 3]>
## 3        3      0.25 <S3: gbm> <tibble [1,000 × 3]>
## 4        4      0.5  <S3: gbm> <tibble [1,000 × 3]>

graf_eval <- modelos_dat %>% select(shrinkage, eval) %>% unnest
graf_eval

## # A tibble: 4,000 x 4
##    shrinkage n_arbol tipo    valor
##        <dbl>   <int> <chr>   <dbl>
##  1      0.02       1 entrena 0.309
##  2      0.02       2 entrena 0.305
##  3      0.02       3 entrena 0.301
##  4      0.02       4 entrena 0.297
##  5      0.02       5 entrena 0.294
##  6      0.02       6 entrena 0.290
##  7      0.02       7 entrena 0.287
##  8      0.02       8 entrena 0.283
##  9      0.02       9 entrena 0.280
## 10      0.02      10 entrena 0.277
## # ... with 3,990 more rows
…
## # A tibble: 3 x 5
##   n_modelo bag.fraction shrinkage modelo    eval                
##      <int>        <dbl>     <dbl> <list>    <list>              
## 1        1         0.25      0.25 <S3: gbm> <tibble [1,000 × 3]>
## 2        2         0.5       0.25 <S3: gbm> <tibble [1,000 × 3]>
## 3        3         1         0.25 <S3: gbm> <tibble [1,000 × 3]>

graf_eval <- modelos_dat %>% select(bag.fraction, eval) %>% unnest
graf_eval

## # A tibble: 3,000 x 4
##    bag.fraction n_arbol tipo    valor
##           <dbl>   <int> <chr>   <dbl>
##  1         0.25       1 entrena 0.269
##  2         0.25       2 entrena 0.232
##  3         0.25       3 entrena 0.211
##  4         0.25       4 entrena 0.194
##  5         0.25       5 entrena 0.179
##  6         0.25       6 entrena 0.170
##  7         0.25       7 entrena 0.162
##  8         0.25       8 entrena 0.152
##  9         0.25       9 entrena 0.147
## 10         0.25      10 entrena 0.142
## # ... with 2,990 more rows
…
