Aprendizaje de máquina
…
Pesos y activaciones

Y ahora graficamos los filtros aprendidos en la primera capa:

library(scales)
capa_1 <- wts[[1]] 
capa_list <- lapply(1:8, function(i){
    data_frame(val = as.numeric(t(capa_1[,,1,i])), pixel = 1:25, unidad=i)
}) %>% 
    bind_rows %>% 
    mutate(y = (pixel-1) %% 5, x = (pixel-1) %/% 5) %>%
     group_by(unidad)
capa_list

## # A tibble: 200 x 5
## # Groups:   unidad [8]
##         val pixel unidad     y     x
##       <dbl> <int>  <int> <dbl> <dbl>
##  1  0.131       1      1     0     0
##  2  0.278       2      1     1     0
##  3  0.246       3      1     2     0
##  4 -0.00461     4      1     3     0
##  5 -0.144       5      1     4     0
##  6 -0.165       6      1     0     1
##  7  0.0589      7      1     1     1
##  8  0.417       8      1     2     1
##  9  0.268       9      1     3     1
## 10 -0.0650     10      1     4     1
## # ... with 190 more rows
…
