Aprendizaje de máquina
…
Buscamos entonces minimizar la devianza (evaluada en la muestra de prueba),
que corresponde a tomar un valor de \(\lambda\) alrededor de 0.5, por ejemplo

Discusión: ¿por qué la devianza de prueba tiene esta forma, que es
típica para problemas de regularización?

El modelo final queda como sigue:

df_lambdas 

## # A tibble: 50 x 2
##    modelo lambda
##    <chr>   <dbl>
##  1 s0      226. 
##  2 s1      187. 
##  3 s2      155. 
##  4 s3      129. 
##  5 s4      107. 
##  6 s5       88.3
##  7 s6       73.1
##  8 s7       60.6
##  9 s8       50.2
## 10 s9       41.6
## # ... with 40 more rows
…
