Tarea 3: clasificación y devianza
…
diabetes_ent <- as_data_frame(MASS::Pima.tr)
diabetes_pr <- as_data_frame(MASS::Pima.te)
datos_ent <- diabetes_ent %>% 
    mutate(diabetes = as.numeric(type == "Yes")) %>%
    select(diabetes, glu) 
set.seed(886)
# Usamos una muestra chica de prueba para examinar los resultados
datos_pr <- diabetes_pr %>% 
    mutate(diabetes = as.numeric(type == "Yes")) %>%
    select(diabetes, glu) %>%
    sample_n(10)
datos_ent

## # A tibble: 200 x 2
##    diabetes   glu
##       <dbl> <int>
##  1        0    86
##  2        1   195
##  3        0    77
##  4        0   165
##  5        0   107
##  6        1    97
##  7        0    83
##  8        0   193
##  9        0   142
## 10        1   128
## # ... with 190 more rows
…
